…
For example, user 135672 placed order 472890 on day 6 (Saturday) at 3
p.m.. One of the products in this order was “Organic Baby Spinach”,
which belongs to the produce department. This item was not reordered
from a previous purchase (reordered = 0), indicating that it was likely
a new addition to the user’s cart.

Import data and clean names

``` r
data("instacart")
instacart |> 
  janitor::clean_names()
```

    ## # A tibble: 1,384,617 × 15
    ##    order_id product_id add_to_cart_order reordered user_id eval_set order_number
    ##       <int>      <int>             <int>     <int>   <int> <chr>           <int>
    ##  1        1      49302                 1         1  112108 train               4
    ##  2        1      11109                 2         1  112108 train               4
    ##  3        1      10246                 3         0  112108 train               4
    ##  4        1      49683                 4         0  112108 train               4
    ##  5        1      43633                 5         1  112108 train               4
    ##  6        1      13176                 6         0  112108 train               4
    ##  7        1      47209                 7         0  112108 train               4
    ##  8        1      22035                 8         1  112108 train               4
    ##  9       36      39612                 1         0   79431 train              23
    ## 10       36      19660                 2         1   79431 train              23
    ## # ℹ 1,384,607 more rows
    ## # ℹ 8 more variables: order_dow <int>, order_hour_of_day <int>,
    ## #   days_since_prior_order <int>, product_name <chr>, aisle_id <int>,
    ## #   department_id <int>, aisle <chr>, department <chr>
…
unique aisles in the store

This code is for the most popular merchandise

``` r
count_aisle <- instacart |> 
  count(aisle, sort = TRUE)

count_aisle
```

    ## # A tibble: 134 × 2
    ##    aisle                              n
    ##    <chr>                          <int>
    ##  1 fresh vegetables              150609
    ##  2 fresh fruits                  150473
    ##  3 packaged vegetables fruits     78493
    ##  4 yogurt                         55240
    ##  5 packaged cheese                41699
    ##  6 water seltzer sparkling water  36617
    ##  7 milk                           32644
    ##  8 chips pretzels                 31269
    ##  9 soy lactosefree                26240
    ## 10 bread                          23635
    ## # ℹ 124 more rows
…
``` r
count_aisle
```

    ## # A tibble: 134 × 2
    ##    aisle                              n
    ##    <chr>                          <int>
    ##  1 fresh vegetables              150609
    ##  2 fresh fruits                  150473
    ##  3 packaged vegetables fruits     78493
    ##  4 yogurt                         55240
    ##  5 packaged cheese                41699
    ##  6 water seltzer sparkling water  36617
    ##  7 milk                           32644
    ##  8 chips pretzels                 31269
    ##  9 soy lactosefree                26240
    ## 10 bread                          23635
    ## # ℹ 124 more rows
…
  arrange(zip_code, county) |> 
  distinct(zip_code, county, neighborhood, .keep_all = TRUE) |> 
  mutate(
    borough = case_when(
      county == "Bronx"    ~ "Bronx",
      county == "Kings"    ~ "Brooklyn",
      county == "New York" ~ "Manhattan",
      county == "Queens"   ~ "Queens",
      county == "Richmond" ~ "Staten Island",
    )
  )
zip_data_1
```

    ## # A tibble: 322 × 4
    ##    zip_code county   neighborhood                  borough  
    ##    <chr>    <chr>    <chr>                         <chr>    
    ##  1 10001    New York Chelsea and Clinton           Manhattan
    ##  2 10002    New York Lower East Side               Manhattan
    ##  3 10003    New York Lower East Side               Manhattan
    ##  4 10004    New York Lower Manhattan               Manhattan
    ##  5 10005    New York Lower Manhattan               Manhattan
    ##  6 10006    New York Lower Manhattan               Manhattan
    ##  7 10007    New York Lower Manhattan               Manhattan
    ##  8 10008    New York <NA>                          Manhattan
    ##  9 10009    New York Lower East Side               Manhattan
    ## 10 10010    New York Gramercy Park and Murray Hill Manhattan
    ## # ℹ 312 more rows
…
``` r
zip_zori_data_1 <- zip_zori_data |> 
  pivot_longer(
    x2015_01_31:x2024_08_31,
    names_to = "date",
    values_to = "zori"
  ) |> 
  mutate(date = ymd(str_remove(date, "^x"))) |> 
  mutate(zip_code = as.character(region_name)) |> 
  filter(!is.na(zori))
zip_zori_data_1
```

    ## # A tibble: 10,450 × 12
    ##    region_id size_rank region_name region_type state_name state city     metro  
    ##        <dbl>     <dbl>       <dbl> <chr>       <chr>      <chr> <chr>    <chr>  
    ##  1     62080         4       11368 zip         NY         NY    New York New Yo…
    ##  2     62080         4       11368 zip         NY         NY    New York New Yo…
    ##  3     62093         7       11385 zip         NY         NY    New York New Yo…
    ##  4     62093         7       11385 zip         NY         NY    New York New Yo…
    ##  5     62093         7       11385 zip         NY         NY    New York New Yo…
    ##  6     62093         7       11385 zip         NY         NY    New York New Yo…
    ##  7     62093         7       11385 zip         NY         NY    New York New Yo…
    ##  8     62093         7       11385 zip         NY         NY    New York New Yo…
    ##  9     62093         7       11385 zip         NY         NY    New York New Yo…
    ## 10     62093         7       11385 zip         NY         NY    New York New Yo…
    ## # ℹ 10,440 more rows
    ## # ℹ 4 more variables: county_name <chr>, date <date>, zori <dbl>,
    ## #   zip_code <chr>
…
    ## Warning in left_join(zip_zori_data_1, zip_data_1, by = "zip_code"): Detected an unexpected many-to-many relationship between `x` and `y`.
    ## ℹ Row 2759 of `x` matches multiple rows in `y`.
    ## ℹ Row 269 of `y` matches multiple rows in `x`.
    ## ℹ If a many-to-many relationship is expected, set `relationship =
    ##   "many-to-many"` to silence this warning.

``` r
final_tidy
```

    ## # A tibble: 10,677 × 15
    ##    zip_code neighborhood        date        zori region_id size_rank region_name
    ##    <chr>    <chr>               <date>     <dbl>     <dbl>     <dbl>       <dbl>
    ##  1 10001    Chelsea and Clinton 2015-01-31 3855.     61615      4444       10001
    ##  2 10001    Chelsea and Clinton 2015-02-28 3892.     61615      4444       10001
    ##  3 10001    Chelsea and Clinton 2015-03-31 3898.     61615      4444       10001
    ##  4 10001    Chelsea and Clinton 2015-04-30 3970.     61615      4444       10001
    ##  5 10001    Chelsea and Clinton 2015-05-31 4033.     61615      4444       10001
    ##  6 10001    Chelsea and Clinton 2015-06-30 4071.     61615      4444       10001
    ##  7 10001    Chelsea and Clinton 2015-07-31 4067.     61615      4444       10001
    ##  8 10001    Chelsea and Clinton 2015-08-31 4070.     61615      4444       10001
    ##  9 10001    Chelsea and Clinton 2015-09-30 4040.     61615      4444       10001
    ## 10 10001    Chelsea and Clinton 2015-10-31 4023.     61615      4444       10001
    ## # ℹ 10,667 more rows
    ## # ℹ 8 more variables: region_type <chr>, state_name <chr>, state <chr>,
    ## #   city <chr>, metro <chr>, county_name <chr>, county <chr>, borough <chr>

Count zips for the question

``` r
zip_count <- final_tidy |> 
  count(zip_code) |> 
  rename(n_obs = n)
zip_count
```

    ## # A tibble: 149 × 2
    ##    zip_code n_obs
    ##    <chr>    <int>
    ##  1 10001      116
    ##  2 10002      116
    ##  3 10003      116
    ##  4 10004       92
    ##  5 10005      116
    ##  6 10006       52
    ##  7 10007       92
    ##  8 10009      114
    ##  9 10010      116
    ## 10 10011      114
    ## # ℹ 139 more rows
…
    ## `summarise()` has grouped output by 'borough'. You can override using the
    ## `.groups` argument.

``` r
borough_year_avg
```

    ## # A tibble: 45 × 3
    ## # Groups:   borough [5]
    ##    borough  year avg_rent
    ##    <chr>   <dbl>    <dbl>
    ##  1 Bronx    2015    1760.
    ##  2 Bronx    2016    1520.
    ##  3 Bronx    2017    1544.
    ##  4 Bronx    2018    1639.
    ##  5 Bronx    2019    1706.
    ##  6 Bronx    2020    1811.
    ##  7 Bronx    2021    1858.
    ##  8 Bronx    2022    2054.
    ##  9 Bronx    2023    2285.
    ## 10 Bronx    2024    2497.
    ## # ℹ 35 more rows
…
``` r
zip_2023 <- final_tidy |>
  filter(year(date) == 2023) |>
  group_by(borough, zip_code) |>
  summarize(zip_avg_2023 = mean(zori, na.rm = TRUE)) 
```

    ## `summarise()` has grouped output by 'borough'. You can override using the
    ## `.groups` argument.

``` r
zip_2023
```

    ## # A tibble: 127 × 3
    ## # Groups:   borough [5]
    ##    borough zip_code zip_avg_2023
    ##    <chr>   <chr>           <dbl>
    ##  1 Bronx   10451           2840.
    ##  2 Bronx   10452           2223.
    ##  3 Bronx   10454           2655.
    ##  4 Bronx   10457           2303.
    ##  5 Bronx   10458           1664.
    ##  6 Bronx   10461           2296.
    ##  7 Bronx   10462           2080.
    ##  8 Bronx   10463           2539.
    ##  9 Bronx   10465           2258.
    ## 10 Bronx   10466           2448.
    ## # ℹ 117 more rows
…
Filtering age less than and equals to 21

``` r
covar_clean <- covar_df |>
  filter(age >= 21) |>
  drop_na(sex, education, age, bmi)
covar_clean
```

    ## # A tibble: 228 × 5
    ##     seqn   sex   age   bmi education
    ##    <dbl> <dbl> <dbl> <dbl>     <dbl>
    ##  1 62161     1    22  23.3         2
    ##  2 62164     2    44  23.2         3
    ##  3 62169     1    21  20.1         2
    ##  4 62174     1    80  33.9         3
    ##  5 62177     1    51  20.1         2
    ##  6 62178     1    80  28.5         2
    ##  7 62180     1    35  27.9         3
    ##  8 62184     1    26  22.1         2
    ##  9 62189     2    30  22.4         3
    ## 10 62199     1    57  28           3
    ## # ℹ 218 more rows
…
final_df <- covar_clean |>
   mutate(
    sex = factor(as.integer(sex),
                 levels = c(1, 2),
                 labels = c("Male", "Female")),
    education = factor(as.integer(education),
                       levels = c(1, 2, 3),
                       labels = c("Less than High School",
                                  "High School Equivalent",
                                  "More than High School"))
    ) 
final_df
```

    ## # A tibble: 228 × 5
    ##     seqn sex      age   bmi education             
    ##    <dbl> <fct>  <dbl> <dbl> <fct>                 
    ##  1 62161 Male      22  23.3 High School Equivalent
    ##  2 62164 Female    44  23.2 More than High School 
    ##  3 62169 Male      21  20.1 High School Equivalent
    ##  4 62174 Male      80  33.9 More than High School 
    ##  5 62177 Male      51  20.1 High School Equivalent
    ##  6 62178 Male      80  28.5 High School Equivalent
    ##  7 62180 Male      35  27.9 More than High School 
    ##  8 62184 Male      26  22.1 High School Equivalent
    ##  9 62189 Female    30  22.4 More than High School 
    ## 10 62199 Male      57  28   More than High School 
    ## # ℹ 218 more rows
…
  rename(seqn = seqn) |>
  pivot_longer(
    cols = -seqn,
    names_to  = "minute",
    values_to = "mims"
  ) |>
  mutate(
    minute = readr::parse_number(minute),
    mims   = as.numeric(mims)
  ) |>
  arrange(seqn, minute)
accel_long
```

    ## # A tibble: 360,000 × 3
    ##     seqn minute  mims
    ##    <dbl>  <dbl> <dbl>
    ##  1 62161      1 1.11 
    ##  2 62161      2 3.12 
    ##  3 62161      3 1.47 
    ##  4 62161      4 0.938
    ##  5 62161      5 1.60 
    ##  6 62161      6 0.145
    ##  7 62161      7 2.10 
    ##  8 62161      8 0.509
    ##  9 62161      9 1.63 
    ## 10 62161     10 1.20 
    ## # ℹ 359,990 more rows

Merge the minute observations and demographics

``` r
final_long <- accel_long |>
  inner_join(final_df, by = "seqn")
final_long
```

    ## # A tibble: 328,320 × 7
    ##     seqn minute  mims sex     age   bmi education             
    ##    <dbl>  <dbl> <dbl> <fct> <dbl> <dbl> <fct>                 
    ##  1 62161      1 1.11  Male     22  23.3 High School Equivalent
    ##  2 62161      2 3.12  Male     22  23.3 High School Equivalent
    ##  3 62161      3 1.47  Male     22  23.3 High School Equivalent
    ##  4 62161      4 0.938 Male     22  23.3 High School Equivalent
    ##  5 62161      5 1.60  Male     22  23.3 High School Equivalent
    ##  6 62161      6 0.145 Male     22  23.3 High School Equivalent
    ##  7 62161      7 2.10  Male     22  23.3 High School Equivalent
    ##  8 62161      8 0.509 Male     22  23.3 High School Equivalent
    ##  9 62161      9 1.63  Male     22  23.3 High School Equivalent
    ## 10 62161     10 1.20  Male     22  23.3 High School Equivalent
    ## # ℹ 328,310 more rows
…
